{
	"paging": {
		"totalPages": 8.0,
		"currentPage": 1,
		"pageSize": 12,
		"totalResults": 92.0,
		"filteredResults": 92,
		"currentPageResults": 12
	},
	"filters": {
		"isFromDB": false,
		"cacheIdentifier": "Products-by-Category - 173-https://poq-api-uat.azurewebsites.net/api/Products/Filter/173?categoryId=274457&order=date&page=1",
		"integrationUrl": null,
		"keyword": null,
		"externalId": null,
		"ids": [],
		"categoryId": 274457,
		"sizes": ["2", "4", "6", "7", "8", "9", "10", "11", "12", "26", "27", "28", "29", "30", "31", "32", "33", "34", "36", "XS", "S", "M", "L", "XL", "One Size"],
		"sizeValues": [],
		"prices": [2.18, 779.35],
		"categories": [{
			"id": "228699",
			"title": "Accessories"
		}, {
			"id": "228686",
			"title": "Bags & Luggage"
		}, {
			"id": "228690",
			"title": "Bed & Bath"
		}, {
			"id": "228691",
			"title": "Books & Music"
		}, {
			"id": "228692",
			"title": "Decorative Accents"
		}, {
			"id": "240560",
			"title": "Dresses"
		}, {
			"id": "228693",
			"title": "Electronics"
		}, {
			"id": "228687",
			"title": "Eyewear"
		}, {
			"id": "228700",
			"title": "Home & Decor"
		}, {
			"id": "240564",
			"title": "Jackets"
		}, {
			"id": "228688",
			"title": "Jewelry"
		}, {
			"id": "228694",
			"title": "Men"
		}, {
			"id": "242756",
			"title": "Most Wanted"
		}, {
			"id": "228695",
			"title": "New Arrivals"
		}, {
			"id": "274083",
			"title": "New In"
		}, {
			"id": "228696",
			"title": "Pants & Denim"
		}, {
			"id": "228703",
			"title": "Pants & Denim"
		}, {
			"id": "240562",
			"title": "Shirts"
		}, {
			"id": "238575",
			"title": "Shoes"
		}, {
			"id": "240561",
			"title": "Shoes"
		}, {
			"id": "228697",
			"title": "Tees, Knits and Polos"
		}, {
			"id": "305218",
			"title": "This is another really really really long category name for making sure long category names show correctly in the app "
		}, {
			"id": "240563",
			"title": "Tops"
		}, {
			"id": "274457",
			"title": "View All"
		}, {
			"id": "228701",
			"title": "VIP"
		}, {
			"id": "228702",
			"title": "Women"
		}],
		"colours": ["Black", "Blue", "Charcoal", "Cognac", "Indigo", "Red", "Silver", "Taupe", "White"],
		"colourValues": [],
		"brands": [],
		"styles": [],
		"ratings": [],
		"selectedCategories": [],
		"selectedSizes": [],
		"selectedSizeValues": [],
		"selectedBrands": [],
		"selectedStyles": [],
		"selectedRatings": [],
		"selectedColors": [],
		"selectedColorValues": [],
		"selectedMinPrice": null,
		"selectedMaxPrice": null,
		"selectedSortField": 3,
		"selectedSortDirection": 0,
		"refinements": [],
		"selectedRefinements": []
	},
	"products": [{
		"id": 14779784,
		"title": "sh. Round Sunglasses",
		"body": null,
		"description": null,
		"price": 39.99,
		"specialPrice": 0.0,
		"sortIndex": 8919513,
		"url": "https://poquat.blob.core.windows.net/app173/11705379-800.png?v=131538449783400000",
		"width": 1113,
		"height": 1374,
		"thumbnailUrl": "https://poquat.blob.core.windows.net/app173/11705379-540.png?v=131538449783400000",
		"thumbnailWidth": 160,
		"thumbnailHeight": 197,
		"isFavorite": null,
		"numberofLikes": 0,
		"numberOfReviews": 0,
		"relatedProductIDs": null,
		"productColors": null,
		"productSizes": [],
		"productPictures": [{
			"id": 0,
			"pictureID": 0,
			"sortIndex": 0,
			"url": "https://poquat.blob.core.windows.net/app173/11705379-800.png?v=131538449783400000",
			"width": 1113,
			"height": 1374,
			"thumbnailUrl": "https://poquat.blob.core.windows.net/app173/11705379-540.png?v=131538449783400000",
			"thumbnailWidth": 160,
			"thumbnailHeight": 197
		}],
		"externalID": "1234534",
		"productURL": null,
		"hasMoreColors": false,
		"color": null,
		"colorGroupID": null,
		"colorSwatchUrl": null,
		"brand": null,
		"promotion": null,
		"sizeGuide": null,
		"returns": null,
		"delivery": null,
		"style": null,
		"rating": 0.0,
		"internationalDelivery": null,
		"homeDelivery": null,
		"buyAndCollect": null,
		"isAvailableInStore": null,
		"selectedSizeID": null,
		"selectedSizeName": null,
		"isInStock": false,
		"headerImage": null,
		"videoUrl": "https://cdn.quizclothing.co.uk/version2/_uploads/products/videos/00100013069.mp4"
	}, {
		"id": 14775316,
		"title": "Floral Print Playsuit",
		"body": null,
		"description": null,
		"price": 54.99,
		"specialPrice": 54.99,
		"sortIndex": 8919512,
		"url": "https://poquat.blob.core.windows.net/app173/11705377-800.png?v=131538449727330000",
		"width": 1128,
		"height": 1380,
		"thumbnailUrl": "https://poquat.blob.core.windows.net/app173/11705377-540.png?v=131538449727330000",
		"thumbnailWidth": 160,
		"thumbnailHeight": 195,
		"isFavorite": null,
		"numberofLikes": 0,
		"numberOfReviews": 0,
		"relatedProductIDs": null,
		"productColors": null,
		"productSizes": [],
		"productPictures": [{
			"id": 0,
			"pictureID": 0,
			"sortIndex": 0,
			"url": "https://poquat.blob.core.windows.net/app173/11705377-800.png?v=131538449727330000",
			"width": 1128,
			"height": 1380,
			"thumbnailUrl": "https://poquat.blob.core.windows.net/app173/11705377-540.png?v=131538449727330000",
			"thumbnailWidth": 160,
			"thumbnailHeight": 195
		}],
		"externalID": "1234511",
		"productURL": null,
		"hasMoreColors": false,
		"color": null,
		"colorGroupID": null,
		"colorSwatchUrl": null,
		"brand": null,
		"promotion": null,
		"sizeGuide": null,
		"returns": null,
		"delivery": null,
		"style": null,
		"rating": 0.0,
		"internationalDelivery": null,
		"homeDelivery": null,
		"buyAndCollect": null,
		"isAvailableInStore": null,
		"selectedSizeID": null,
		"selectedSizeName": null,
		"isInStock": false,
		"headerImage": null,
		"videoUrl": "https://cdn.quizclothing.co.uk/version2/_uploads/products/videos/00100013069.mp4"
	}, {
		"id": 14775315,
		"title": "Stonewash Denim Jeans",
		"body": null,
		"description": null,
		"price": 49.99,
		"specialPrice": 49.99,
		"sortIndex": 8919511,
		"url": "https://poquat.blob.core.windows.net/app173/11705378-800.png?v=131538449752930000",
		"width": 1116,
		"height": 1380,
		"thumbnailUrl": "https://poquat.blob.core.windows.net/app173/11705378-540.png?v=131538449752930000",
		"thumbnailWidth": 160,
		"thumbnailHeight": 197,
		"isFavorite": null,
		"numberofLikes": 0,
		"numberOfReviews": 0,
		"relatedProductIDs": null,
		"productColors": null,
		"productSizes": [],
		"productPictures": [{
			"id": 0,
			"pictureID": 0,
			"sortIndex": 0,
			"url": "https://poquat.blob.core.windows.net/app173/11705378-800.png?v=131538449752930000",
			"width": 1116,
			"height": 1380,
			"thumbnailUrl": "https://poquat.blob.core.windows.net/app173/11705378-540.png?v=131538449752930000",
			"thumbnailWidth": 160,
			"thumbnailHeight": 197
		}],
		"externalID": "1234502",
		"productURL": null,
		"hasMoreColors": false,
		"color": null,
		"colorGroupID": null,
		"colorSwatchUrl": null,
		"brand": null,
		"promotion": null,
		"sizeGuide": null,
		"returns": null,
		"delivery": null,
		"style": null,
		"rating": 0.0,
		"internationalDelivery": null,
		"homeDelivery": null,
		"buyAndCollect": null,
		"isAvailableInStore": null,
		"selectedSizeID": null,
		"selectedSizeName": null,
		"isInStock": false,
		"headerImage": null,
		"videoUrl": "https://cdn.quizclothing.co.uk/version2/_uploads/products/videos/00100013069.mp4"
	}, {
		"id": 14762860,
		"title": "Leia Flare Red Dress",
		"body": null,
		"description": null,
		"price": 89.99,
		"specialPrice": 89.99,
		"sortIndex": 8919510,
		"url": "https://poquat.blob.core.windows.net/app173/11713489-800.png?v=131538493818300000",
		"width": 1275,
		"height": 1560,
		"thumbnailUrl": "https://poquat.blob.core.windows.net/app173/11713489-540.png?v=131538493818300000",
		"thumbnailWidth": 160,
		"thumbnailHeight": 195,
		"isFavorite": null,
		"numberofLikes": 0,
		"numberOfReviews": 0,
		"relatedProductIDs": null,
		"productColors": null,
		"productSizes": [{
			"id": 0,
			"size": "10",
			"sku": null,
			"quantity": 0,
			"sortIndex": 0,
			"ean": null,
			"price": 0.0,
			"specialPrice": 0.0,
			"sizeAttributes": null,
			"productID": 0
		}, {
			"id": 0,
			"size": "8",
			"sku": null,
			"quantity": 0,
			"sortIndex": 0,
			"ean": null,
			"price": 0.0,
			"specialPrice": 0.0,
			"sizeAttributes": null,
			"productID": 0
		}],
		"productPictures": [{
			"id": 0,
			"pictureID": 0,
			"sortIndex": 0,
			"url": "https://poquat.blob.core.windows.net/app173/11713489-800.png?v=131538493818300000",
			"width": 1275,
			"height": 1560,
			"thumbnailUrl": "https://poquat.blob.core.windows.net/app173/11713489-540.png?v=131538493818300000",
			"thumbnailWidth": 160,
			"thumbnailHeight": 195
		}],
		"externalID": "123459",
		"productURL": null,
		"hasMoreColors": false,
		"color": "Red",
		"colorGroupID": null,
		"colorSwatchUrl": null,
		"brand": null,
		"promotion": null,
		"sizeGuide": null,
		"returns": null,
		"delivery": null,
		"style": null,
		"rating": 0.0,
		"internationalDelivery": null,
		"homeDelivery": null,
		"buyAndCollect": null,
		"isAvailableInStore": null,
		"selectedSizeID": null,
		"selectedSizeName": null,
		"isInStock": false,
		"headerImage": null,
		"videoUrl": "https://cdn.quizclothing.co.uk/version2/_uploads/products/videos/00100013069.mp4"
	}, {
		"id": 14759874,
		"title": "Black Velvet Glitter Bodycon Dress",
		"body": null,
		"description": null,
		"price": 34.99,
		"specialPrice": 34.99,
		"sortIndex": 8919509,
		"url": "https://poquat.blob.core.windows.net/app173/11680742-800.png?v=131529841850430000",
		"width": 1180,
		"height": 1776,
		"thumbnailUrl": "https://poquat.blob.core.windows.net/app173/11680742-540.png?v=131529841850430000",
		"thumbnailWidth": 141,
		"thumbnailHeight": 213,
		"isFavorite": null,
		"numberofLikes": 0,
		"numberOfReviews": 0,
		"relatedProductIDs": null,
		"productColors": null,
		"productSizes": [],
		"productPictures": [{
			"id": 0,
			"pictureID": 0,
			"sortIndex": 0,
			"url": "https://poquat.blob.core.windows.net/app173/11680742-800.png?v=131529841850430000",
			"width": 1180,
			"height": 1776,
			"thumbnailUrl": "https://poquat.blob.core.windows.net/app173/11680742-540.png?v=131529841850430000",
			"thumbnailWidth": 141,
			"thumbnailHeight": 213
		}],
		"externalID": "1234550",
		"productURL": null,
		"hasMoreColors": false,
		"color": null,
		"colorGroupID": null,
		"colorSwatchUrl": null,
		"brand": null,
		"promotion": null,
		"sizeGuide": null,
		"returns": null,
		"delivery": null,
		"style": null,
		"rating": 0.0,
		"internationalDelivery": null,
		"homeDelivery": null,
		"buyAndCollect": null,
		"isAvailableInStore": null,
		"selectedSizeID": null,
		"selectedSizeName": null,
		"isInStock": false,
		"headerImage": null,
		"videoUrl": "https://cdn.quizclothing.co.uk/version2/_uploads/products/videos/00100013069.mp4"
	}, {
		"id": 14759873,
		"title": "Black Velvet Glitter Bardot Maxi Dress",
		"body": null,
		"description": null,
		"price": 54.99,
		"specialPrice": 54.99,
		"sortIndex": 8919508,
		"url": "https://poquat.blob.core.windows.net/app173/11680743-800.png?v=131529841887470000",
		"width": 1192,
		"height": 1774,
		"thumbnailUrl": "https://poquat.blob.core.windows.net/app173/11680743-540.png?v=131529841887470000",
		"thumbnailWidth": 143,
		"thumbnailHeight": 213,
		"isFavorite": null,
		"numberofLikes": 0,
		"numberOfReviews": 0,
		"relatedProductIDs": null,
		"productColors": null,
		"productSizes": [],
		"productPictures": [{
			"id": 0,
			"pictureID": 0,
			"sortIndex": 0,
			"url": "https://poquat.blob.core.windows.net/app173/11680743-800.png?v=131529841887470000",
			"width": 1192,
			"height": 1774,
			"thumbnailUrl": "https://poquat.blob.core.windows.net/app173/11680743-540.png?v=131529841887470000",
			"thumbnailWidth": 143,
			"thumbnailHeight": 213
		}],
		"externalID": "12334",
		"productURL": null,
		"hasMoreColors": false,
		"color": null,
		"colorGroupID": null,
		"colorSwatchUrl": null,
		"brand": null,
		"promotion": null,
		"sizeGuide": null,
		"returns": null,
		"delivery": null,
		"style": null,
		"rating": 0.0,
		"internationalDelivery": null,
		"homeDelivery": null,
		"buyAndCollect": null,
		"isAvailableInStore": null,
		"selectedSizeID": null,
		"selectedSizeName": null,
		"isInStock": false,
		"headerImage": null,
		"videoUrl": "https://cdn.quizclothing.co.uk/version2/_uploads/products/videos/00100013068.mp4"
	}, {
		"id": 13566450,
		"title": "Isla Crossbody Handbag",
		"body": "<p>Pebbled leather. Contrast stitching. Fold over flap with Fasten closure. Crossbody strap. 6\" x 8\" x 0.75\".</p>",
		"description": "Pebbled leather. Contrast stitching. Fold over flap with Fasten closure. Crossbody strap. 6\" x 8\" x 0.75\".",
		"price": 316.10,
		"specialPrice": 316.10,
		"sortIndex": 8919502,
		"url": "https://poqmbuat.blob.core.windows.net/app173/9749432-800.jpg?v=131406319763970000",
		"width": 1536,
		"height": 1022,
		"thumbnailUrl": "https://poqmbuat.blob.core.windows.net/app173/9749432-540.jpg?v=131406319763970000",
		"thumbnailWidth": 160,
		"thumbnailHeight": 106,
		"isFavorite": null,
		"numberofLikes": 0,
		"numberOfReviews": 0,
		"relatedProductIDs": null,
		"productColors": null,
		"productSizes": [{
			"id": 0,
			"size": "One Size",
			"sku": null,
			"quantity": 0,
			"sortIndex": 0,
			"ean": null,
			"price": 0.0,
			"specialPrice": 0.0,
			"sizeAttributes": null,
			"productID": 0
		}],
		"productPictures": [{
			"id": 0,
			"pictureID": 0,
			"sortIndex": 0,
			"url": "https://poqmbuat.blob.core.windows.net/app173/9749432-800.jpg?v=131406319763970000",
			"width": 1536,
			"height": 1022,
			"thumbnailUrl": "https://poqmbuat.blob.core.windows.net/app173/9749432-540.jpg?v=131406319763970000",
			"thumbnailWidth": 160,
			"thumbnailHeight": 106
		}],
		"externalID": "abl000",
		"productURL": "http://poqmagento.azurewebsites.net/index.php/isla-crossbody-handbag.html",
		"hasMoreColors": false,
		"color": null,
		"colorGroupID": null,
		"colorSwatchUrl": null,
		"brand": null,
		"promotion": null,
		"sizeGuide": null,
		"returns": null,
		"delivery": null,
		"style": null,
		"rating": 0.0,
		"internationalDelivery": null,
		"homeDelivery": null,
		"buyAndCollect": null,
		"isAvailableInStore": null,
		"selectedSizeID": null,
		"selectedSizeName": null,
		"isInStock": false,
		"headerImage": null,
		"videoUrl": null
	}, {
		"id": 13566449,
		"title": "Flatiron Tablet Sleeve",
		"body": "Pebble textured leather tabled case. Top zip closure. Exterior zipper pocket. Fully lined with back wall slip pocket. 8.75\\\" x 11\\\" x .5\\\". Imported.",
		"description": "Pebble textured leather tabled case. Top zip closure. Exterior zipper pocket. Fully lined with back wall slip pocket. 8.75\\\" x 11\\\" x .5\\\". Imported.",
		"price": 163.50,
		"specialPrice": 163.50,
		"sortIndex": 18,
		"url": "https://poqmbuat.blob.core.windows.net/app173/9749430-800.jpg?v=131406319763970000",
		"width": 1536,
		"height": 1118,
		"thumbnailUrl": "https://poqmbuat.blob.core.windows.net/app173/9749430-540.jpg?v=131406319763970000",
		"thumbnailWidth": 160,
		"thumbnailHeight": 116,
		"isFavorite": null,
		"numberofLikes": 0,
		"numberOfReviews": 0,
		"relatedProductIDs": null,
		"productColors": null,
		"productSizes": [{
			"id": 0,
			"size": "One Size",
			"sku": null,
			"quantity": 0,
			"sortIndex": 0,
			"ean": null,
			"price": 0.0,
			"specialPrice": 0.0,
			"sizeAttributes": null,
			"productID": 0
		}],
		"productPictures": [{
			"id": 0,
			"pictureID": 0,
			"sortIndex": 0,
			"url": "https://poqmbuat.blob.core.windows.net/app173/9749430-800.jpg?v=131406319763970000",
			"width": 1536,
			"height": 1118,
			"thumbnailUrl": "https://poqmbuat.blob.core.windows.net/app173/9749430-540.jpg?v=131406319763970000",
			"thumbnailWidth": 160,
			"thumbnailHeight": 116
		}],
		"externalID": "abl002",
		"productURL": "http://poqmagento.azurewebsites.net/index.php/leather-tablet-sleeve.html",
		"hasMoreColors": false,
		"color": "",
		"colorGroupID": "",
		"colorSwatchUrl": null,
		"brand": null,
		"promotion": null,
		"sizeGuide": null,
		"returns": null,
		"delivery": null,
		"style": null,
		"rating": 0.0,
		"internationalDelivery": null,
		"homeDelivery": null,
		"buyAndCollect": null,
		"isAvailableInStore": null,
		"selectedSizeID": null,
		"selectedSizeName": null,
		"isInStock": false,
		"headerImage": null,
		"videoUrl": null
	}, {
		"id": 13566448,
		"title": "Broad St. Flapover Briefcase",
		"body": "<p>Leather, with flap closure. Padded carrying handles. Main compartment has padded laptop pocket, file section and organizer panel. Quick access back pocket. Padded adjustable shoulder strap. 16\" x 12\" x 3.5\". Domestic.</p>",
		"description": "Leather, with flap closure. Padded carrying handles. Main compartment has padded laptop pocket, file section and organizer panel. Quick access back pocket. Padded adjustable shoulder strap. 16\" x 12\" x 3.5\". Domestic.",
		"price": 621.30,
		"specialPrice": 436.00,
		"sortIndex": 8919501,
		"url": "https://poqmbuat.blob.core.windows.net/app173/9749428-800.jpg?v=131406319839130000",
		"width": 1536,
		"height": 1022,
		"thumbnailUrl": "https://poqmbuat.blob.core.windows.net/app173/9749428-540.jpg?v=131406319839130000",
		"thumbnailWidth": 160,
		"thumbnailHeight": 106,
		"isFavorite": null,
		"numberofLikes": 0,
		"numberOfReviews": 0,
		"relatedProductIDs": null,
		"productColors": null,
		"productSizes": [{
			"id": 0,
			"size": "One Size",
			"sku": null,
			"quantity": 0,
			"sortIndex": 0,
			"ean": null,
			"price": 0.0,
			"specialPrice": 0.0,
			"sizeAttributes": null,
			"productID": 0
		}],
		"productPictures": [{
			"id": 0,
			"pictureID": 0,
			"sortIndex": 0,
			"url": "https://poqmbuat.blob.core.windows.net/app173/9749428-800.jpg?v=131406319839130000",
			"width": 1536,
			"height": 1022,
			"thumbnailUrl": "https://poqmbuat.blob.core.windows.net/app173/9749428-540.jpg?v=131406319839130000",
			"thumbnailWidth": 160,
			"thumbnailHeight": 106
		}],
		"externalID": "abl003",
		"productURL": "http://poqmagento.azurewebsites.net/index.php/flapover-briefcase.html",
		"hasMoreColors": false,
		"color": null,
		"colorGroupID": null,
		"colorSwatchUrl": null,
		"brand": null,
		"promotion": null,
		"sizeGuide": null,
		"returns": null,
		"delivery": null,
		"style": null,
		"rating": 0.0,
		"internationalDelivery": null,
		"homeDelivery": null,
		"buyAndCollect": null,
		"isAvailableInStore": null,
		"selectedSizeID": null,
		"selectedSizeName": null,
		"isInStock": false,
		"headerImage": null,
		"videoUrl": null
	}, {
		"id": 13566447,
		"title": "Houston Travel Wallet",
		"body": "<p>Leather. 4\" x 6.5\" x 0.5\"</p>",
		"description": "Leather. 4\" x 6.5\" x 0.5\"",
		"price": 228.90,
		"specialPrice": 163.50,
		"sortIndex": 8919500,
		"url": "https://poqmbuat.blob.core.windows.net/app173/9749426-800.jpg?v=131406319838800000",
		"width": 1536,
		"height": 1744,
		"thumbnailUrl": "https://poqmbuat.blob.core.windows.net/app173/9749426-540.jpg?v=131406319838800000",
		"thumbnailWidth": 160,
		"thumbnailHeight": 181,
		"isFavorite": null,
		"numberofLikes": 0,
		"numberOfReviews": 0,
		"relatedProductIDs": null,
		"productColors": null,
		"productSizes": [{
			"id": 0,
			"size": "One Size",
			"sku": null,
			"quantity": 0,
			"sortIndex": 0,
			"ean": null,
			"price": 0.0,
			"specialPrice": 0.0,
			"sizeAttributes": null,
			"productID": 0
		}],
		"productPictures": [{
			"id": 0,
			"pictureID": 0,
			"sortIndex": 0,
			"url": "https://poqmbuat.blob.core.windows.net/app173/9749426-800.jpg?v=131406319838800000",
			"width": 1536,
			"height": 1744,
			"thumbnailUrl": "https://poqmbuat.blob.core.windows.net/app173/9749426-540.jpg?v=131406319838800000",
			"thumbnailWidth": 160,
			"thumbnailHeight": 181
		}],
		"externalID": "abl004",
		"productURL": "http://poqmagento.azurewebsites.net/index.php/rolls-travel-wallet.html",
		"hasMoreColors": false,
		"color": null,
		"colorGroupID": null,
		"colorSwatchUrl": null,
		"brand": null,
		"promotion": null,
		"sizeGuide": null,
		"returns": null,
		"delivery": null,
		"style": null,
		"rating": 0.0,
		"internationalDelivery": null,
		"homeDelivery": null,
		"buyAndCollect": null,
		"isAvailableInStore": null,
		"selectedSizeID": null,
		"selectedSizeName": null,
		"isInStock": false,
		"headerImage": null,
		"videoUrl": "http://video.asos-media.com/products/ASOS/_media_/18b/18b112ff-223a-4d45-8c2d-e2f67f65b1aa.mp4"
	}, {
		"id": 13566446,
		"title": "Roller Suitcase",
		"body": "Zip closure. Water resistant hard polycarbonate shell. All direction spinner wheels. Retractable plastic handle. Cross strap interior. 29\\\" x 20\\\" x 13\\\".",
		"description": "Zip closure. Water resistant hard polycarbonate shell. All direction spinner wheels. Retractable plastic handle. Cross strap interior. 29\\\" x 20\\\" x 13\\\".",
		"price": 708.50,
		"specialPrice": 708.50,
		"sortIndex": 17,
		"url": "https://poqmbuat.blob.core.windows.net/app173/9749424-800.jpg?v=131406319846070000",
		"width": 1367,
		"height": 2048,
		"thumbnailUrl": "https://poqmbuat.blob.core.windows.net/app173/9749424-540.jpg?v=131406319846070000",
		"thumbnailWidth": 142,
		"thumbnailHeight": 213,
		"isFavorite": null,
		"numberofLikes": 0,
		"numberOfReviews": 0,
		"relatedProductIDs": null,
		"productColors": null,
		"productSizes": [{
			"id": 0,
			"size": "One Size",
			"sku": null,
			"quantity": 0,
			"sortIndex": 0,
			"ean": null,
			"price": 0.0,
			"specialPrice": 0.0,
			"sizeAttributes": null,
			"productID": 0
		}],
		"productPictures": [{
			"id": 0,
			"pictureID": 0,
			"sortIndex": 0,
			"url": "https://poqmbuat.blob.core.windows.net/app173/9749424-800.jpg?v=131406319846070000",
			"width": 1367,
			"height": 2048,
			"thumbnailUrl": "https://poqmbuat.blob.core.windows.net/app173/9749424-540.jpg?v=131406319846070000",
			"thumbnailWidth": 142,
			"thumbnailHeight": 213
		}],
		"externalID": "abl005",
		"productURL": "http://poqmagento.azurewebsites.net/index.php/roller-suitcase.html",
		"hasMoreColors": false,
		"color": "",
		"colorGroupID": "",
		"colorSwatchUrl": null,
		"brand": null,
		"promotion": null,
		"sizeGuide": null,
		"returns": null,
		"delivery": null,
		"style": null,
		"rating": 0.0,
		"internationalDelivery": null,
		"homeDelivery": null,
		"buyAndCollect": null,
		"isAvailableInStore": null,
		"selectedSizeID": null,
		"selectedSizeName": null,
		"isInStock": false,
		"headerImage": null,
		"videoUrl": null
	}, {
		"id": 13566444,
		"title": "Classic Hardshell Suitcase",
		"body": "<p>Water resistant hard polycarbonate shell. All direction spinner wheels. Zip closure. Locking, retractable metal handle. Cross strap and self repairing zipper interior. Padded side handle for lateral carry. 21\" x 17\" x 10\".</p>",
		"description": "Water resistant hard polycarbonate shell. All direction spinner wheels. Zip closure. Locking, retractable metal handle. Cross strap and self repairing zipper interior. Padded side handle for lateral carry. 21\" x 17\" x 10\".",
		"price": 654.00,
		"specialPrice": 654.00,
		"sortIndex": 8919499,
		"url": "https://poqmbuat.blob.core.windows.net/app173/9749422-800.jpg?v=131406319844170000",
		"width": 1367,
		"height": 2048,
		"thumbnailUrl": "https://poqmbuat.blob.core.windows.net/app173/9749422-540.jpg?v=131406319844170000",
		"thumbnailWidth": 142,
		"thumbnailHeight": 213,
		"isFavorite": null,
		"numberofLikes": 0,
		"numberOfReviews": 0,
		"relatedProductIDs": null,
		"productColors": null,
		"productSizes": [{
			"id": 0,
			"size": "One Size",
			"sku": null,
			"quantity": 0,
			"sortIndex": 0,
			"ean": null,
			"price": 0.0,
			"specialPrice": 0.0,
			"sizeAttributes": null,
			"productID": 0
		}],
		"productPictures": [{
			"id": 0,
			"pictureID": 0,
			"sortIndex": 0,
			"url": "https://poqmbuat.blob.core.windows.net/app173/9749422-800.jpg?v=131406319844170000",
			"width": 1367,
			"height": 2048,
			"thumbnailUrl": "https://poqmbuat.blob.core.windows.net/app173/9749422-540.jpg?v=131406319844170000",
			"thumbnailWidth": 142,
			"thumbnailHeight": 213
		}],
		"externalID": "abl006c",
		"productURL": "http://poqmagento.azurewebsites.net/index.php/classic-hardshell-suitcase-583.html",
		"hasMoreColors": false,
		"color": null,
		"colorGroupID": null,
		"colorSwatchUrl": null,
		"brand": null,
		"promotion": null,
		"sizeGuide": null,
		"returns": null,
		"delivery": null,
		"style": null,
		"rating": 0.0,
		"internationalDelivery": null,
		"homeDelivery": null,
		"buyAndCollect": null,
		"isAvailableInStore": null,
		"selectedSizeID": null,
		"selectedSizeName": null,
		"isInStock": false,
		"headerImage": null,
		"videoUrl": "http://techslides.com/demos/sample-videos/small.mp4"
	}],
	"contentBlocks": [],
	"message": "No category/keyword set",
	"appId": 173,
	"averageRating": 0.0,
	"numberOfReviews": 0,
	"redirectUrl": null
}
